Week 10 - Data Wrangling Part II
…
One important to note is that we rarely everpivot the ID column, because that enables us to identify which participant’s score each variable. Let’s look at what happens if we do include ID in the cols argument

pivot_longer(
  df_personality_wide,
  cols = ID:Openness, #pivot everything
  values_to = "Response"
)

# A tibble: 60 × 2
   name              Response
   <chr>                <dbl>
 1 ID                    1   
 2 Wellbeing             3.55
 3 Extraversion          3.98
 4 Neuroticism           2.15
 5 Conscientiousness     3.34
 6 Openness              2.44
 7 ID                    2   
 8 Wellbeing             3.82
 9 Extraversion          3.29
10 Neuroticism           2.83
# ℹ 50 more rows
…
